{
    "count": 1126,
    "next": "https://pokeapi.co/api/v2/pokemon?offset=151&limit=151",
    "previous": null,
    "results": [
        {
            "id": 1,
            "name": "bulbasaur",
            "url": "https://pokeapi.co/api/v2/pokemon/1/",
            "quantity": 210,
            "price_unit": 100,
            "created_at": "2022-02-15",
            "updated_at": "2022-02-15",
            "user_created": 0,
            "user_edited": 0
        },
        {
            "id": 2,
            "name": "ivysaur",
            "url": "https://pokeapi.co/api/v2/pokemon/2/",
            "quantity": 210,
            "price_unit": 100,
            "created_at": "2022-02-15",
            "updated_at": "2022-02-15",
            "user_created": 0,
            "user_edited": 0
        },
        {
            "id": 3,
            "name": "venusaur",
            "url": "https://pokeapi.co/api/v2/pokemon/3/",
            "quantity": 210,
            "price_unit": 100,
            "created_at": "2022-02-15",
            "updated_at": "2022-02-15",
            "user_created": 0,
            "user_edited": 0
        },
        {
            "id": 4,
            "name": "charmander",
            "url": "https://pokeapi.co/api/v2/pokemon/4/",
            "quantity": 210,
            "price_unit": 100,
            "created_at": "2022-02-15",
            "updated_at": "2022-02-15",
            "user_created": 0,
            "user_edited": 0
        },
        {
            "id": 5,
            "name": "charmeleon",
            "url": "https://pokeapi.co/api/v2/pokemon/5/",
            "quantity": 210,
            "price_unit": 100,
            "created_at": "2022-02-15",
            "updated_at": "2022-02-15",
            "user_created": 0,
            "user_edited": 0
        },
        {
            "id": 6,
            "name": "charizard",
            "url": "https://pokeapi.co/api/v2/pokemon/6/",
            "quantity": 210,
            "price_unit": 100,
            "created_at": "2022-02-15",
            "updated_at": "2022-02-15",
            "user_created": 0,
            "user_edited": 0
        },
        {
            "id": 7,
            "name": "squirtle",
            "url": "https://pokeapi.co/api/v2/pokemon/7/",
            "quantity": 210,
            "price_unit": 100,
            "created_at": "2022-02-15",
            "updated_at": "2022-02-15",
            "user_created": 0,
            "user_edited": 0
        },
        {
            "id": 8,
            "name": "wartortle",
            "url": "https://pokeapi.co/api/v2/pokemon/8/",
            "quantity": 210,
            "price_unit": 100,
            "created_at": "2022-02-15",
            "updated_at": "2022-02-15",
            "user_created": 0,
            "user_edited": 0
        },
        {
            "id": 9,
            "name": "blastoise",
            "url": "https://pokeapi.co/api/v2/pokemon/9/",
            "quantity": 210,
            "price_unit": 100,
            "created_at": "2022-02-15",
            "updated_at": "2022-02-15",
            "user_created": 0,
            "user_edited": 0
        },
        {
            "id": 10,
            "name": "caterpie",
            "url": "https://pokeapi.co/api/v2/pokemon/10/",
            "quantity": 210,
            "price_unit": 100,
            "created_at": "2022-02-15",
            "updated_at": "2022-02-15",
            "user_created": 0,
            "user_edited": 0
        },
        {
            "id": 11,
            "name": "metapod",
            "url": "https://pokeapi.co/api/v2/pokemon/11/",
            "quantity": 210,
            "price_unit": 100,
            "created_at": "2022-02-15",
            "updated_at": "2022-02-15",
            "user_created": 0,
            "user_edited": 0
        },
        {
            "id": 12,
            "name": "butterfree",
            "url": "https://pokeapi.co/api/v2/pokemon/12/",
            "quantity": 210,
            "price_unit": 100,
            "created_at": "2022-02-15",
            "updated_at": "2022-02-15",
            "user_created": 0,
            "user_edited": 0
        },
        {
            "id": 13,
            "name": "weedle",
            "url": "https://pokeapi.co/api/v2/pokemon/13/",
            "quantity": 210,
            "price_unit": 100,
            "created_at": "2022-02-15",
            "updated_at": "2022-02-15",
            "user_created": 0,
            "user_edited": 0
        },
        {
            "id": 14,
            "name": "kakuna",
            "url": "https://pokeapi.co/api/v2/pokemon/14/",
            "quantity": 210,
            "price_unit": 100,
            "created_at": "2022-02-15",
            "updated_at": "2022-02-15",
            "user_created": 0,
            "user_edited": 0
        },
        {
            "id": 15,
            "name": "beedrill",
            "url": "https://pokeapi.co/api/v2/pokemon/15/",
            "quantity": 210,
            "price_unit": 100,
            "created_at": "2022-02-15",
            "updated_at": "2022-02-15",
            "user_created": 0,
            "user_edited": 0
        },
        {
            "id": 16,
            "name": "pidgey",
            "url": "https://pokeapi.co/api/v2/pokemon/16/",
            "quantity": 210,
            "price_unit": 100,
            "created_at": "2022-02-15",
            "updated_at": "2022-02-15",
            "user_created": 0,
            "user_edited": 0
        },
        {
            "id": 17,
            "name": "pidgeotto",
            "url": "https://pokeapi.co/api/v2/pokemon/17/",
            "quantity": 210,
            "price_unit": 100,
            "created_at": "2022-02-15",
            "updated_at": "2022-02-15",
            "user_created": 0,
            "user_edited": 0
        },
        {
            "id": 18,
            "name": "pidgeot",
            "url": "https://pokeapi.co/api/v2/pokemon/18/",
            "quantity": 210,
            "price_unit": 100,
            "created_at": "2022-02-15",
            "updated_at": "2022-02-15",
            "user_created": 0,
            "user_edited": 0
        },
        {
            "id": 19,
            "name": "rattata",
            "url": "https://pokeapi.co/api/v2/pokemon/19/",
            "quantity": 210,
            "price_unit": 100,
            "created_at": "2022-02-15",
            "updated_at": "2022-02-15",
            "user_created": 0,
            "user_edited": 0
        },
        {
            "id": 20,
            "name": "raticate",
            "url": "https://pokeapi.co/api/v2/pokemon/20/",
            "quantity": 210,
            "price_unit": 100,
            "created_at": "2022-02-15",
            "updated_at": "2022-02-15",
            "user_created": 0,
            "user_edited": 0
        },
        {
            "id": 21,
            "name": "spearow",
            "url": "https://pokeapi.co/api/v2/pokemon/21/",
            "quantity": 210,
            "price_unit": 100,
            "created_at": "2022-02-15",
            "updated_at": "2022-02-15",
            "user_created": 0,
            "user_edited": 0
        },
        {
            "id": 22,
            "name": "fearow",
            "url": "https://pokeapi.co/api/v2/pokemon/22/",
            "quantity": 210,
            "price_unit": 100,
            "created_at": "2022-02-15",
            "updated_at": "2022-02-15",
            "user_created": 0,
            "user_edited": 0
        },
        {
            "id": 23,
            "name": "ekans",
            "url": "https://pokeapi.co/api/v2/pokemon/23/",
            "quantity": 210,
            "price_unit": 100,
            "created_at": "2022-02-15",
            "updated_at": "2022-02-15",
            "user_created": 0,
            "user_edited": 0
        },
        {
            "id": 24,
            "name": "arbok",
            "url": "https://pokeapi.co/api/v2/pokemon/24/",
            "quantity": 210,
            "price_unit": 100,
            "created_at": "2022-02-15",
            "updated_at": "2022-02-15",
            "user_created": 0,
            "user_edited": 0
        },
        {
            "id": 25,
            "name": "pikachu",
            "url": "https://pokeapi.co/api/v2/pokemon/25/",
            "quantity": 210,
            "price_unit": 100,
            "created_at": "2022-02-15",
            "updated_at": "2022-02-15",
            "user_created": 0,
            "user_edited": 0
        },
        {
            "id": 26,
            "name": "raichu",
            "url": "https://pokeapi.co/api/v2/pokemon/26/",
            "quantity": 210,
            "price_unit": 100,
            "created_at": "2022-02-15",
            "updated_at": "2022-02-15",
            "user_created": 0,
            "user_edited": 0
        },
        {
            "id": 27,
            "name": "sandshrew",
            "url": "https://pokeapi.co/api/v2/pokemon/27/",
            "quantity": 210,
            "price_unit": 100,
            "created_at": "2022-02-15",
            "updated_at": "2022-02-15",
            "user_created": 0,
            "user_edited": 0
        },
        {
            "id": 28,
            "name": "sandslash",
            "url": "https://pokeapi.co/api/v2/pokemon/28/",
            "quantity": 210,
            "price_unit": 100,
            "created_at": "2022-02-15",
            "updated_at": "2022-02-15",
            "user_created": 0,
            "user_edited": 0
        },
        {
            "id": 29,
            "name": "nidoran-f",
            "url": "https://pokeapi.co/api/v2/pokemon/29/",
            "quantity": 210,
            "price_unit": 100,
            "created_at": "2022-02-15",
            "updated_at": "2022-02-15",
            "user_created": 0,
            "user_edited": 0
        },
        {
            "id": 30,
            "name": "nidorina",
            "url": "https://pokeapi.co/api/v2/pokemon/30/",
            "quantity": 210,
            "price_unit": 100,
            "created_at": "2022-02-15",
            "updated_at": "2022-02-15",
            "user_created": 0,
            "user_edited": 0
        },
        {
            "id": 31,
            "name": "nidoqueen",
            "url": "https://pokeapi.co/api/v2/pokemon/31/",
            "quantity": 210,
            "price_unit": 100,
            "created_at": "2022-02-15",
            "updated_at": "2022-02-15",
            "user_created": 0,
            "user_edited": 0
        },
        {
            "id": 32,
            "name": "nidoran-m",
            "url": "https://pokeapi.co/api/v2/pokemon/32/",
            "quantity": 210,
            "price_unit": 100,
            "created_at": "2022-02-15",
            "updated_at": "2022-02-15",
            "user_created": 0,
            "user_edited": 0
        },
        {
            "id": 33,
            "name": "nidorino",
            "url": "https://pokeapi.co/api/v2/pokemon/33/",
            "quantity": 210,
            "price_unit": 100,
            "created_at": "2022-02-15",
            "updated_at": "2022-02-15",
            "user_created": 0,
            "user_edited": 0
        },
        {
            "id": 34,
            "name": "nidoking",
            "url": "https://pokeapi.co/api/v2/pokemon/34/",
            "quantity": 210,
            "price_unit": 100,
            "created_at": "2022-02-15",
            "updated_at": "2022-02-15",
            "user_created": 0,
            "user_edited": 0
        },
        {
            "id": 35,
            "name": "clefairy",
            "url": "https://pokeapi.co/api/v2/pokemon/35/",
            "quantity": 210,
            "price_unit": 100,
            "created_at": "2022-02-15",
            "updated_at": "2022-02-15",
            "user_created": 0,
            "user_edited": 0
        },
        {
            "id": 36,
            "name": "clefable",
            "url": "https://pokeapi.co/api/v2/pokemon/36/",
            "quantity": 210,
            "price_unit": 100,
            "created_at": "2022-02-15",
            "updated_at": "2022-02-15",
            "user_created": 0,
            "user_edited": 0
        },
        {
            "id": 37,
            "name": "vulpix",
            "url": "https://pokeapi.co/api/v2/pokemon/37/",
            "quantity": 210,
            "price_unit": 100,
            "created_at": "2022-02-15",
            "updated_at": "2022-02-15",
            "user_created": 0,
            "user_edited": 0
        },
        {
            "id": 38,
            "name": "ninetales",
            "url": "https://pokeapi.co/api/v2/pokemon/38/",
            "quantity": 210,
            "price_unit": 100,
            "created_at": "2022-02-15",
            "updated_at": "2022-02-15",
            "user_created": 0,
            "user_edited": 0
        },
        {
            "id": 39,
            "name": "jigglypuff",
            "url": "https://pokeapi.co/api/v2/pokemon/39/",
            "quantity": 210,
            "price_unit": 100,
            "created_at": "2022-02-15",
            "updated_at": "2022-02-15",
            "user_created": 0,
            "user_edited": 0
        },
        {
            "id": 40,
            "name": "wigglytuff",
            "url": "https://pokeapi.co/api/v2/pokemon/40/",
            "quantity": 210,
            "price_unit": 100,
            "created_at": "2022-02-15",
            "updated_at": "2022-02-15",
            "user_created": 0,
            "user_edited": 0
        },
        {
            "id": 41,
            "name": "zubat",
            "url": "https://pokeapi.co/api/v2/pokemon/41/",
            "quantity": 210,
            "price_unit": 100,
            "created_at": "2022-02-15",
            "updated_at": "2022-02-15",
            "user_created": 0,
            "user_edited": 0
        },
        {
            "id": 42,
            "name": "golbat",
            "url": "https://pokeapi.co/api/v2/pokemon/42/",
            "quantity": 210,
            "price_unit": 100,
            "created_at": "2022-02-15",
            "updated_at": "2022-02-15",
            "user_created": 0,
            "user_edited": 0
        },
        {
            "id": 43,
            "name": "oddish",
            "url": "https://pokeapi.co/api/v2/pokemon/43/",
            "quantity": 210,
            "price_unit": 100,
            "created_at": "2022-02-15",
            "updated_at": "2022-02-15",
            "user_created": 0,
            "user_edited": 0
        },
        {
            "id": 44,
            "name": "gloom",
            "url": "https://pokeapi.co/api/v2/pokemon/44/",
            "quantity": 210,
            "price_unit": 100,
            "created_at": "2022-02-15",
            "updated_at": "2022-02-15",
            "user_created": 0,
            "user_edited": 0
        },
        {
            "id": 45,
            "name": "vileplume",
            "url": "https://pokeapi.co/api/v2/pokemon/45/",
            "quantity": 210,
            "price_unit": 100,
            "created_at": "2022-02-15",
            "updated_at": "2022-02-15",
            "user_created": 0,
            "user_edited": 0
        },
        {
            "id": 46,
            "name": "paras",
            "url": "https://pokeapi.co/api/v2/pokemon/46/",
            "quantity": 210,
            "price_unit": 100,
            "created_at": "2022-02-15",
            "updated_at": "2022-02-15",
            "user_created": 0,
            "user_edited": 0
        },
        {
            "id": 47,
            "name": "parasect",
            "url": "https://pokeapi.co/api/v2/pokemon/47/",
            "quantity": 210,
            "price_unit": 100,
            "created_at": "2022-02-15",
            "updated_at": "2022-02-15",
            "user_created": 0,
            "user_edited": 0
        },
        {
            "id": 48,
            "name": "venonat",
            "url": "https://pokeapi.co/api/v2/pokemon/48/",
            "quantity": 210,
            "price_unit": 100,
            "created_at": "2022-02-15",
            "updated_at": "2022-02-15",
            "user_created": 0,
            "user_edited": 0
        },
        {
            "id": 49,
            "name": "venomoth",
            "url": "https://pokeapi.co/api/v2/pokemon/49/",
            "quantity": 210,
            "price_unit": 100,
            "created_at": "2022-02-15",
            "updated_at": "2022-02-15",
            "user_created": 0,
            "user_edited": 0
        },
        {
            "id": 50,
            "name": "diglett",
            "url": "https://pokeapi.co/api/v2/pokemon/50/",
            "quantity": 210,
            "price_unit": 100,
            "created_at": "2022-02-15",
            "updated_at": "2022-02-15",
            "user_created": 0,
            "user_edited": 0
        },
        {
            "id": 51,
            "name": "dugtrio",
            "url": "https://pokeapi.co/api/v2/pokemon/51/",
            "quantity": 210,
            "price_unit": 100,
            "created_at": "2022-02-15",
            "updated_at": "2022-02-15",
            "user_created": 0,
            "user_edited": 0
        },
        {
            "id": 52,
            "name": "meowth",
            "url": "https://pokeapi.co/api/v2/pokemon/52/",
            "quantity": 210,
            "price_unit": 100,
            "created_at": "2022-02-15",
            "updated_at": "2022-02-15",
            "user_created": 0,
            "user_edited": 0
        },
        {
            "id": 53,
            "name": "persian",
            "url": "https://pokeapi.co/api/v2/pokemon/53/",
            "quantity": 210,
            "price_unit": 100,
            "created_at": "2022-02-15",
            "updated_at": "2022-02-15",
            "user_created": 0,
            "user_edited": 0
        },
        {
            "id": 54,
            "name": "psyduck",
            "url": "https://pokeapi.co/api/v2/pokemon/54/",
            "quantity": 210,
            "price_unit": 100,
            "created_at": "2022-02-15",
            "updated_at": "2022-02-15",
            "user_created": 0,
            "user_edited": 0
        },
        {
            "id": 55,
            "name": "golduck",
            "url": "https://pokeapi.co/api/v2/pokemon/55/",
            "quantity": 210,
            "price_unit": 100,
            "created_at": "2022-02-15",
            "updated_at": "2022-02-15",
            "user_created": 0,
            "user_edited": 0
        },
        {
            "id": 56,
            "name": "mankey",
            "url": "https://pokeapi.co/api/v2/pokemon/56/",
            "quantity": 210,
            "price_unit": 100,
            "created_at": "2022-02-15",
            "updated_at": "2022-02-15",
            "user_created": 0,
            "user_edited": 0
        },
        {
            "id": 57,
            "name": "primeape",
            "url": "https://pokeapi.co/api/v2/pokemon/57/",
            "quantity": 210,
            "price_unit": 100,
            "created_at": "2022-02-15",
            "updated_at": "2022-02-15",
            "user_created": 0,
            "user_edited": 0
        },
        {
            "id": 58,
            "name": "growlithe",
            "url": "https://pokeapi.co/api/v2/pokemon/58/",
            "quantity": 210,
            "price_unit": 100,
            "created_at": "2022-02-15",
            "updated_at": "2022-02-15",
            "user_created": 0,
            "user_edited": 0
        },
        {
            "id": 59,
            "name": "arcanine",
            "url": "https://pokeapi.co/api/v2/pokemon/59/",
            "quantity": 210,
            "price_unit": 100,
            "created_at": "2022-02-15",
            "updated_at": "2022-02-15",
            "user_created": 0,
            "user_edited": 0
        },
        {
            "id": 60,
            "name": "poliwag",
            "url": "https://pokeapi.co/api/v2/pokemon/60/",
            "quantity": 210,
            "price_unit": 100,
            "created_at": "2022-02-15",
            "updated_at": "2022-02-15",
            "user_created": 0,
            "user_edited": 0
        },
        {
            "id": 61,
            "name": "poliwhirl",
            "url": "https://pokeapi.co/api/v2/pokemon/61/",
            "quantity": 210,
            "price_unit": 100,
            "created_at": "2022-02-15",
            "updated_at": "2022-02-15",
            "user_created": 0,
            "user_edited": 0
        },
        {
            "id": 62,
            "name": "poliwrath",
            "url": "https://pokeapi.co/api/v2/pokemon/62/",
            "quantity": 210,
            "price_unit": 100,
            "created_at": "2022-02-15",
            "updated_at": "2022-02-15",
            "user_created": 0,
            "user_edited": 0
        },
        {
            "id": 63,
            "name": "abra",
            "url": "https://pokeapi.co/api/v2/pokemon/63/",
            "quantity": 210,
            "price_unit": 100,
            "created_at": "2022-02-15",
            "updated_at": "2022-02-15",
            "user_created": 0,
            "user_edited": 0
        },
        {
            "id": 64,
            "name": "kadabra",
            "url": "https://pokeapi.co/api/v2/pokemon/64/",
            "quantity": 210,
            "price_unit": 100,
            "created_at": "2022-02-15",
            "updated_at": "2022-02-15",
            "user_created": 0,
            "user_edited": 0
        },
        {
            "id": 65,
            "name": "alakazam",
            "url": "https://pokeapi.co/api/v2/pokemon/65/",
            "quantity": 210,
            "price_unit": 100,
            "created_at": "2022-02-15",
            "updated_at": "2022-02-15",
            "user_created": 0,
            "user_edited": 0
        },
        {
            "id": 66,
            "name": "machop",
            "url": "https://pokeapi.co/api/v2/pokemon/66/",
            "quantity": 210,
            "price_unit": 100,
            "created_at": "2022-02-15",
            "updated_at": "2022-02-15",
            "user_created": 0,
            "user_edited": 0
        },
        {
            "id": 67,
            "name": "machoke",
            "url": "https://pokeapi.co/api/v2/pokemon/67/",
            "quantity": 210,
            "price_unit": 100,
            "created_at": "2022-02-15",
            "updated_at": "2022-02-15",
            "user_created": 0,
            "user_edited": 0
        },
        {
            "id": 68,
            "name": "machamp",
            "url": "https://pokeapi.co/api/v2/pokemon/68/",
            "quantity": 210,
            "price_unit": 100,
            "created_at": "2022-02-15",
            "updated_at": "2022-02-15",
            "user_created": 0,
            "user_edited": 0
        },
        {
            "id": 69,
            "name": "bellsprout",
            "url": "https://pokeapi.co/api/v2/pokemon/69/",
            "quantity": 210,
            "price_unit": 100,
            "created_at": "2022-02-15",
            "updated_at": "2022-02-15",
            "user_created": 0,
            "user_edited": 0
        },
        {
            "id": 70,
            "name": "weepinbell",
            "url": "https://pokeapi.co/api/v2/pokemon/70/",
            "quantity": 210,
            "price_unit": 100,
            "created_at": "2022-02-15",
            "updated_at": "2022-02-15",
            "user_created": 0,
            "user_edited": 0
        },
        {
            "id": 71,
            "name": "victreebel",
            "url": "https://pokeapi.co/api/v2/pokemon/71/",
            "quantity": 210,
            "price_unit": 100,
            "created_at": "2022-02-15",
            "updated_at": "2022-02-15",
            "user_created": 0,
            "user_edited": 0
        },
        {
            "id": 72,
            "name": "tentacool",
            "url": "https://pokeapi.co/api/v2/pokemon/72/",
            "quantity": 210,
            "price_unit": 100,
            "created_at": "2022-02-15",
            "updated_at": "2022-02-15",
            "user_created": 0,
            "user_edited": 0
        },
        {
            "id": 73,
            "name": "tentacruel",
            "url": "https://pokeapi.co/api/v2/pokemon/73/",
            "quantity": 210,
            "price_unit": 100,
            "created_at": "2022-02-15",
            "updated_at": "2022-02-15",
            "user_created": 0,
            "user_edited": 0
        },
        {
            "id": 74,
            "name": "geodude",
            "url": "https://pokeapi.co/api/v2/pokemon/74/",
            "quantity": 210,
            "price_unit": 100,
            "created_at": "2022-02-15",
            "updated_at": "2022-02-15",
            "user_created": 0,
            "user_edited": 0
        },
        {
            "id": 75,
            "name": "graveler",
            "url": "https://pokeapi.co/api/v2/pokemon/75/",
            "quantity": 210,
            "price_unit": 100,
            "created_at": "2022-02-15",
            "updated_at": "2022-02-15",
            "user_created": 0,
            "user_edited": 0
        },
        {
            "id": 76,
            "name": "golem",
            "url": "https://pokeapi.co/api/v2/pokemon/76/",
            "quantity": 210,
            "price_unit": 100,
            "created_at": "2022-02-15",
            "updated_at": "2022-02-15",
            "user_created": 0,
            "user_edited": 0
        },
        {
            "id": 77,
            "name": "ponyta",
            "url": "https://pokeapi.co/api/v2/pokemon/77/",
            "quantity": 210,
            "price_unit": 100,
            "created_at": "2022-02-15",
            "updated_at": "2022-02-15",
            "user_created": 0,
            "user_edited": 0
        },
        {
            "id": 78,
            "name": "rapidash",
            "url": "https://pokeapi.co/api/v2/pokemon/78/",
            "quantity": 210,
            "price_unit": 100,
            "created_at": "2022-02-15",
            "updated_at": "2022-02-15",
            "user_created": 0,
            "user_edited": 0
        },
        {
            "id": 79,
            "name": "slowpoke",
            "url": "https://pokeapi.co/api/v2/pokemon/79/",
            "quantity": 210,
            "price_unit": 100,
            "created_at": "2022-02-15",
            "updated_at": "2022-02-15",
            "user_created": 0,
            "user_edited": 0
        },
        {
            "id": 80,
            "name": "slowbro",
            "url": "https://pokeapi.co/api/v2/pokemon/80/",
            "quantity": 210,
            "price_unit": 100,
            "created_at": "2022-02-15",
            "updated_at": "2022-02-15",
            "user_created": 0,
            "user_edited": 0
        },
        {
            "id": 81,
            "name": "magnemite",
            "url": "https://pokeapi.co/api/v2/pokemon/81/",
            "quantity": 210,
            "price_unit": 100,
            "created_at": "2022-02-15",
            "updated_at": "2022-02-15",
            "user_created": 0,
            "user_edited": 0
        },
        {
            "id": 82,
            "name": "magneton",
            "url": "https://pokeapi.co/api/v2/pokemon/82/",
            "quantity": 210,
            "price_unit": 100,
            "created_at": "2022-02-15",
            "updated_at": "2022-02-15",
            "user_created": 0,
            "user_edited": 0
        },
        {
            "id": 83,
            "name": "farfetchd",
            "url": "https://pokeapi.co/api/v2/pokemon/83/",
            "quantity": 210,
            "price_unit": 100,
            "created_at": "2022-02-15",
            "updated_at": "2022-02-15",
            "user_created": 0,
            "user_edited": 0
        },
        {
            "id": 84,
            "name": "doduo",
            "url": "https://pokeapi.co/api/v2/pokemon/84/",
            "quantity": 210,
            "price_unit": 100,
            "created_at": "2022-02-15",
            "updated_at": "2022-02-15",
            "user_created": 0,
            "user_edited": 0
        },
        {
            "id": 85,
            "name": "dodrio",
            "url": "https://pokeapi.co/api/v2/pokemon/85/",
            "quantity": 210,
            "price_unit": 100,
            "created_at": "2022-02-15",
            "updated_at": "2022-02-15",
            "user_created": 0,
            "user_edited": 0
        },
        {
            "id": 86,
            "name": "seel",
            "url": "https://pokeapi.co/api/v2/pokemon/86/",
            "quantity": 210,
            "price_unit": 100,
            "created_at": "2022-02-15",
            "updated_at": "2022-02-15",
            "user_created": 0,
            "user_edited": 0
        },
        {
            "id": 87,
            "name": "dewgong",
            "url": "https://pokeapi.co/api/v2/pokemon/87/",
            "quantity": 210,
            "price_unit": 100,
            "created_at": "2022-02-15",
            "updated_at": "2022-02-15",
            "user_created": 0,
            "user_edited": 0
        },
        {
            "id": 88,
            "name": "grimer",
            "url": "https://pokeapi.co/api/v2/pokemon/88/",
            "quantity": 210,
            "price_unit": 100,
            "created_at": "2022-02-15",
            "updated_at": "2022-02-15",
            "user_created": 0,
            "user_edited": 0
        },
        {
            "id": 89,
            "name": "muk",
            "url": "https://pokeapi.co/api/v2/pokemon/89/",
            "quantity": 210,
            "price_unit": 100,
            "created_at": "2022-02-15",
            "updated_at": "2022-02-15",
            "user_created": 0,
            "user_edited": 0
        },
        {
            "id": 90,
            "name": "shellder",
            "url": "https://pokeapi.co/api/v2/pokemon/90/",
            "quantity": 210,
            "price_unit": 100,
            "created_at": "2022-02-15",
            "updated_at": "2022-02-15",
            "user_created": 0,
            "user_edited": 0
        },
        {
            "id": 91,
            "name": "cloyster",
            "url": "https://pokeapi.co/api/v2/pokemon/91/",
            "quantity": 210,
            "price_unit": 100,
            "created_at": "2022-02-15",
            "updated_at": "2022-02-15",
            "user_created": 0,
            "user_edited": 0
        },
        {
            "id": 92,
            "name": "gastly",
            "url": "https://pokeapi.co/api/v2/pokemon/92/",
            "quantity": 210,
            "price_unit": 100,
            "created_at": "2022-02-15",
            "updated_at": "2022-02-15",
            "user_created": 0,
            "user_edited": 0
        },
        {
            "id": 93,
            "name": "haunter",
            "url": "https://pokeapi.co/api/v2/pokemon/93/",
            "quantity": 210,
            "price_unit": 100,
            "created_at": "2022-02-15",
            "updated_at": "2022-02-15",
            "user_created": 0,
            "user_edited": 0
        },
        {
            "id": 94,
            "name": "gengar",
            "url": "https://pokeapi.co/api/v2/pokemon/94/",
            "quantity": 210,
            "price_unit": 100,
            "created_at": "2022-02-15",
            "updated_at": "2022-02-15",
            "user_created": 0,
            "user_edited": 0
        },
        {
            "id": 95,
            "name": "onix",
            "url": "https://pokeapi.co/api/v2/pokemon/95/",
            "quantity": 210,
            "price_unit": 100,
            "created_at": "2022-02-15",
            "updated_at": "2022-02-15",
            "user_created": 0,
            "user_edited": 0
        },
        {
            "id": 96,
            "name": "drowzee",
            "url": "https://pokeapi.co/api/v2/pokemon/96/",
            "quantity": 210,
            "price_unit": 100,
            "created_at": "2022-02-15",
            "updated_at": "2022-02-15",
            "user_created": 0,
            "user_edited": 0
        },
        {
            "id": 97,
            "name": "hypno",
            "url": "https://pokeapi.co/api/v2/pokemon/97/",
            "quantity": 210,
            "price_unit": 100,
            "created_at": "2022-02-15",
            "updated_at": "2022-02-15",
            "user_created": 0,
            "user_edited": 0
        },
        {
            "id": 98,
            "name": "krabby",
            "url": "https://pokeapi.co/api/v2/pokemon/98/",
            "quantity": 210,
            "price_unit": 100,
            "created_at": "2022-02-15",
            "updated_at": "2022-02-15",
            "user_created": 0,
            "user_edited": 0
        },
        {
            "id": 99,
            "name": "kingler",
            "url": "https://pokeapi.co/api/v2/pokemon/99/",
            "quantity": 210,
            "price_unit": 100,
            "created_at": "2022-02-15",
            "updated_at": "2022-02-15",
            "user_created": 0,
            "user_edited": 0
        },
        {
            "id": 100,
            "name": "voltorb",
            "url": "https://pokeapi.co/api/v2/pokemon/100/",
            "quantity": 210,
            "price_unit": 100,
            "created_at": "2022-02-15",
            "updated_at": "2022-02-15",
            "user_created": 0,
            "user_edited": 0
        },
        {
            "id": 101,
            "name": "electrode",
            "url": "https://pokeapi.co/api/v2/pokemon/101/",
            "quantity": 210,
            "price_unit": 100,
            "created_at": "2022-02-15",
            "updated_at": "2022-02-15",
            "user_created": 0,
            "user_edited": 0
        },
        {
            "id": 102,
            "name": "exeggcute",
            "url": "https://pokeapi.co/api/v2/pokemon/102/",
            "quantity": 210,
            "price_unit": 100,
            "created_at": "2022-02-15",
            "updated_at": "2022-02-15",
            "user_created": 0,
            "user_edited": 0
        },
        {
            "id": 103,
            "name": "exeggutor",
            "url": "https://pokeapi.co/api/v2/pokemon/103/",
            "quantity": 210,
            "price_unit": 100,
            "created_at": "2022-02-15",
            "updated_at": "2022-02-15",
            "user_created": 0,
            "user_edited": 0
        },
        {
            "id": 104,
            "name": "cubone",
            "url": "https://pokeapi.co/api/v2/pokemon/104/",
            "quantity": 210,
            "price_unit": 100,
            "created_at": "2022-02-15",
            "updated_at": "2022-02-15",
            "user_created": 0,
            "user_edited": 0
        },
        {
            "id": 105,
            "name": "marowak",
            "url": "https://pokeapi.co/api/v2/pokemon/105/",
            "quantity": 210,
            "price_unit": 100,
            "created_at": "2022-02-15",
            "updated_at": "2022-02-15",
            "user_created": 0,
            "user_edited": 0
        },
        {
            "id": 106,
            "name": "hitmonlee",
            "url": "https://pokeapi.co/api/v2/pokemon/106/",
            "quantity": 210,
            "price_unit": 100,
            "created_at": "2022-02-15",
            "updated_at": "2022-02-15",
            "user_created": 0,
            "user_edited": 0
        },
        {
            "id": 107,
            "name": "hitmonchan",
            "url": "https://pokeapi.co/api/v2/pokemon/107/",
            "quantity": 210,
            "price_unit": 100,
            "created_at": "2022-02-15",
            "updated_at": "2022-02-15",
            "user_created": 0,
            "user_edited": 0
        },
        {
            "id": 108,
            "name": "lickitung",
            "url": "https://pokeapi.co/api/v2/pokemon/108/",
            "quantity": 210,
            "price_unit": 100,
            "created_at": "2022-02-15",
            "updated_at": "2022-02-15",
            "user_created": 0,
            "user_edited": 0
        },
        {
            "id": 109,
            "name": "koffing",
            "url": "https://pokeapi.co/api/v2/pokemon/109/",
            "quantity": 210,
            "price_unit": 100,
            "created_at": "2022-02-15",
            "updated_at": "2022-02-15",
            "user_created": 0,
            "user_edited": 0
        },
        {
            "id": 110,
            "name": "weezing",
            "url": "https://pokeapi.co/api/v2/pokemon/110/",
            "quantity": 210,
            "price_unit": 100,
            "created_at": "2022-02-15",
            "updated_at": "2022-02-15",
            "user_created": 0,
            "user_edited": 0
        },
        {
            "id": 111,
            "name": "rhyhorn",
            "url": "https://pokeapi.co/api/v2/pokemon/111/",
            "quantity": 210,
            "price_unit": 100,
            "created_at": "2022-02-15",
            "updated_at": "2022-02-15",
            "user_created": 0,
            "user_edited": 0
        },
        {
            "id": 112,
            "name": "rhydon",
            "url": "https://pokeapi.co/api/v2/pokemon/112/",
            "quantity": 210,
            "price_unit": 100,
            "created_at": "2022-02-15",
            "updated_at": "2022-02-15",
            "user_created": 0,
            "user_edited": 0
        },
        {
            "id": 113,
            "name": "chansey",
            "url": "https://pokeapi.co/api/v2/pokemon/113/",
            "quantity": 210,
            "price_unit": 100,
            "created_at": "2022-02-15",
            "updated_at": "2022-02-15",
            "user_created": 0,
            "user_edited": 0
        },
        {
            "id": 114,
            "name": "tangela",
            "url": "https://pokeapi.co/api/v2/pokemon/114/",
            "quantity": 210,
            "price_unit": 100,
            "created_at": "2022-02-15",
            "updated_at": "2022-02-15",
            "user_created": 0,
            "user_edited": 0
        },
        {
            "id": 115,
            "name": "kangaskhan",
            "url": "https://pokeapi.co/api/v2/pokemon/115/",
            "quantity": 210,
            "price_unit": 100,
            "created_at": "2022-02-15",
            "updated_at": "2022-02-15",
            "user_created": 0,
            "user_edited": 0
        },
        {
            "id": 116,
            "name": "horsea",
            "url": "https://pokeapi.co/api/v2/pokemon/116/",
            "quantity": 210,
            "price_unit": 100,
            "created_at": "2022-02-15",
            "updated_at": "2022-02-15",
            "user_created": 0,
            "user_edited": 0
        },
        {
            "id": 117,
            "name": "seadra",
            "url": "https://pokeapi.co/api/v2/pokemon/117/",
            "quantity": 210,
            "price_unit": 100,
            "created_at": "2022-02-15",
            "updated_at": "2022-02-15",
            "user_created": 0,
            "user_edited": 0
        },
        {
            "id": 118,
            "name": "goldeen",
            "url": "https://pokeapi.co/api/v2/pokemon/118/",
            "quantity": 210,
            "price_unit": 100,
            "created_at": "2022-02-15",
            "updated_at": "2022-02-15",
            "user_created": 0,
            "user_edited": 0
        },
        {
            "id": 119,
            "name": "seaking",
            "url": "https://pokeapi.co/api/v2/pokemon/119/",
            "quantity": 210,
            "price_unit": 100,
            "created_at": "2022-02-15",
            "updated_at": "2022-02-15",
            "user_created": 0,
            "user_edited": 0
        },
        {
            "id": 120,
            "name": "staryu",
            "url": "https://pokeapi.co/api/v2/pokemon/120/",
            "quantity": 210,
            "price_unit": 100,
            "created_at": "2022-02-15",
            "updated_at": "2022-02-15",
            "user_created": 0,
            "user_edited": 0
        },
        {
            "id": 121,
            "name": "starmie",
            "url": "https://pokeapi.co/api/v2/pokemon/121/",
            "quantity": 210,
            "price_unit": 100,
            "created_at": "2022-02-15",
            "updated_at": "2022-02-15",
            "user_created": 0,
            "user_edited": 0
        },
        {
            "id": 122,
            "name": "mr-mime",
            "url": "https://pokeapi.co/api/v2/pokemon/122/",
            "quantity": 210,
            "price_unit": 100,
            "created_at": "2022-02-15",
            "updated_at": "2022-02-15",
            "user_created": 0,
            "user_edited": 0
        },
        {
            "id": 123,
            "name": "scyther",
            "url": "https://pokeapi.co/api/v2/pokemon/123/",
            "quantity": 210,
            "price_unit": 100,
            "created_at": "2022-02-15",
            "updated_at": "2022-02-15",
            "user_created": 0,
            "user_edited": 0
        },
        {
            "id": 124,
            "name": "jynx",
            "url": "https://pokeapi.co/api/v2/pokemon/124/",
            "quantity": 210,
            "price_unit": 100,
            "created_at": "2022-02-15",
            "updated_at": "2022-02-15",
            "user_created": 0,
            "user_edited": 0
        },
        {
            "id": 125,
            "name": "electabuzz",
            "url": "https://pokeapi.co/api/v2/pokemon/125/",
            "quantity": 210,
            "price_unit": 100,
            "created_at": "2022-02-15",
            "updated_at": "2022-02-15",
            "user_created": 0,
            "user_edited": 0
        },
        {
            "id": 126,
            "name": "magmar",
            "url": "https://pokeapi.co/api/v2/pokemon/126/",
            "quantity": 210,
            "price_unit": 100,
            "created_at": "2022-02-15",
            "updated_at": "2022-02-15",
            "user_created": 0,
            "user_edited": 0
        },
        {
            "id": 127,
            "name": "pinsir",
            "url": "https://pokeapi.co/api/v2/pokemon/127/",
            "quantity": 210,
            "price_unit": 100,
            "created_at": "2022-02-15",
            "updated_at": "2022-02-15",
            "user_created": 0,
            "user_edited": 0
        },
        {
            "id": 128,
            "name": "tauros",
            "url": "https://pokeapi.co/api/v2/pokemon/128/",
            "quantity": 210,
            "price_unit": 100,
            "created_at": "2022-02-15",
            "updated_at": "2022-02-15",
            "user_created": 0,
            "user_edited": 0
        },
        {
            "id": 129,
            "name": "magikarp",
            "url": "https://pokeapi.co/api/v2/pokemon/129/",
            "quantity": 210,
            "price_unit": 100,
            "created_at": "2022-02-15",
            "updated_at": "2022-02-15",
            "user_created": 0,
            "user_edited": 0
        },
        {
            "id": 130,
            "name": "gyarados",
            "url": "https://pokeapi.co/api/v2/pokemon/130/",
            "quantity": 210,
            "price_unit": 100,
            "created_at": "2022-02-15",
            "updated_at": "2022-02-15",
            "user_created": 0,
            "user_edited": 0
        },
        {
            "id": 131,
            "name": "lapras",
            "url": "https://pokeapi.co/api/v2/pokemon/131/",
            "quantity": 210,
            "price_unit": 100,
            "created_at": "2022-02-15",
            "updated_at": "2022-02-15",
            "user_created": 0,
            "user_edited": 0
        },
        {
            "id": 132,
            "name": "ditto",
            "url": "https://pokeapi.co/api/v2/pokemon/132/",
            "quantity": 210,
            "price_unit": 100,
            "created_at": "2022-02-15",
            "updated_at": "2022-02-15",
            "user_created": 0,
            "user_edited": 0
        },
        {
            "id": 133,
            "name": "eevee",
            "url": "https://pokeapi.co/api/v2/pokemon/133/",
            "quantity": 210,
            "price_unit": 100,
            "created_at": "2022-02-15",
            "updated_at": "2022-02-15",
            "user_created": 0,
            "user_edited": 0
        },
        {
            "id": 134,
            "name": "vaporeon",
            "url": "https://pokeapi.co/api/v2/pokemon/134/",
            "quantity": 210,
            "price_unit": 100,
            "created_at": "2022-02-15",
            "updated_at": "2022-02-15",
            "user_created": 0,
            "user_edited": 0
        },
        {
            "id": 135,
            "name": "jolteon",
            "url": "https://pokeapi.co/api/v2/pokemon/135/",
            "quantity": 210,
            "price_unit": 100,
            "created_at": "2022-02-15",
            "updated_at": "2022-02-15",
            "user_created": 0,
            "user_edited": 0
        },
        {
            "id": 136,
            "name": "flareon",
            "url": "https://pokeapi.co/api/v2/pokemon/136/",
            "quantity": 210,
            "price_unit": 100,
            "created_at": "2022-02-15",
            "updated_at": "2022-02-15",
            "user_created": 0,
            "user_edited": 0
        },
        {
            "id": 137,
            "name": "porygon",
            "url": "https://pokeapi.co/api/v2/pokemon/137/",
            "quantity": 210,
            "price_unit": 100,
            "created_at": "2022-02-15",
            "updated_at": "2022-02-15",
            "user_created": 0,
            "user_edited": 0
        },
        {
            "id": 138,
            "name": "omanyte",
            "url": "https://pokeapi.co/api/v2/pokemon/138/",
            "quantity": 210,
            "price_unit": 100,
            "created_at": "2022-02-15",
            "updated_at": "2022-02-15",
            "user_created": 0,
            "user_edited": 0
        },
        {
            "id": 139,
            "name": "omastar",
            "url": "https://pokeapi.co/api/v2/pokemon/139/",
            "quantity": 210,
            "price_unit": 100,
            "created_at": "2022-02-15",
            "updated_at": "2022-02-15",
            "user_created": 0,
            "user_edited": 0
        },
        {
            "id": 140,
            "name": "kabuto",
            "url": "https://pokeapi.co/api/v2/pokemon/140/",
            "quantity": 210,
            "price_unit": 100,
            "created_at": "2022-02-15",
            "updated_at": "2022-02-15",
            "user_created": 0,
            "user_edited": 0
        },
        {
            "id": 141,
            "name": "kabutops",
            "url": "https://pokeapi.co/api/v2/pokemon/141/",
            "quantity": 210,
            "price_unit": 100,
            "created_at": "2022-02-15",
            "updated_at": "2022-02-15",
            "user_created": 0,
            "user_edited": 0
        },
        {
            "id": 142,
            "name": "aerodactyl",
            "url": "https://pokeapi.co/api/v2/pokemon/142/",
            "quantity": 210,
            "price_unit": 100,
            "created_at": "2022-02-15",
            "updated_at": "2022-02-15",
            "user_created": 0,
            "user_edited": 0
        },
        {
            "id": 143,
            "name": "snorlax",
            "url": "https://pokeapi.co/api/v2/pokemon/143/",
            "quantity": 210,
            "price_unit": 100,
            "created_at": "2022-02-15",
            "updated_at": "2022-02-15",
            "user_created": 0,
            "user_edited": 0
        },
        {
            "id": 144,
            "name": "articuno",
            "url": "https://pokeapi.co/api/v2/pokemon/144/",
            "quantity": 210,
            "price_unit": 100,
            "created_at": "2022-02-15",
            "updated_at": "2022-02-15",
            "user_created": 0,
            "user_edited": 0
        },
        {
            "id": 145,
            "name": "zapdos",
            "url": "https://pokeapi.co/api/v2/pokemon/145/",
            "quantity": 210,
            "price_unit": 100,
            "created_at": "2022-02-15",
            "updated_at": "2022-02-15",
            "user_created": 0,
            "user_edited": 0
        },
        {
            "id": 146,
            "name": "moltres",
            "url": "https://pokeapi.co/api/v2/pokemon/146/",
            "quantity": 210,
            "price_unit": 100,
            "created_at": "2022-02-15",
            "updated_at": "2022-02-15",
            "user_created": 0,
            "user_edited": 0
        },
        {
            "id": 147,
            "name": "dratini",
            "url": "https://pokeapi.co/api/v2/pokemon/147/",
            "quantity": 210,
            "price_unit": 100,
            "created_at": "2022-02-15",
            "updated_at": "2022-02-15",
            "user_created": 0,
            "user_edited": 0
        },
        {
            "id": 148,
            "name": "dragonair",
            "url": "https://pokeapi.co/api/v2/pokemon/148/",
            "quantity": 210,
            "price_unit": 100,
            "created_at": "2022-02-15",
            "updated_at": "2022-02-15",
            "user_created": 0,
            "user_edited": 0
        },
        {
            "id": 149,
            "name": "dragonite",
            "url": "https://pokeapi.co/api/v2/pokemon/149/",
            "quantity": 210,
            "price_unit": 100,
            "created_at": "2022-02-15",
            "updated_at": "2022-02-15",
            "user_created": 0,
            "user_edited": 0
        },
        {
            "id": 150,
            "name": "mewtwo",
            "url": "https://pokeapi.co/api/v2/pokemon/150/",
            "quantity": 210,
            "price_unit": 100,
            "created_at": "2022-02-15",
            "updated_at": "2022-02-15",
            "user_created": 0,
            "user_edited": 0
        },
        {
            "id": 151,
            "name": "mew",
            "url": "https://pokeapi.co/api/v2/pokemon/151/",
            "quantity": 210,
            "price_unit": 100,
            "created_at": "2022-02-15",
            "updated_at": "2022-02-15",
            "user_created": 0,
            "user_edited": 0
        }
    ]
}